{
  "status": 200,
  "json": {
    "success": true,
    "customers": [
      {
        "id": 2968,
        "cariAdi": "7A SINIFI",
        "musteriKodu": "MS002968",
        "telefon": null,
        "irtibatAdi": null,
        "subeAdi": "SALON",
        "cariGrubu": null,
        "fiyatGrubu": null,
        "aktif": true,
        "createdAt": "2025-08-10T13:50:59.307Z",
        "updatedAt": "2025-08-10T13:50:59.307Z",
        "ad": "7A SINIFI",
        "email": null,
        "bakiye": 0,
        "adresler": [],
        "enYakinVade": null
      },
      {
        "id": 472,
        "cariAdi": "ABAD BULUT",
        "musteriKodu": "MS000472",
        "telefon": "5306934318",
        "irtibatAdi": null,
        "subeAdi": "İBRAHİMLİ",
        "cariGrubu": null,
        "fiyatGrubu": null,
        "aktif": true,
        "createdAt": "2025-08-10T13:50:54.461Z",
        "updatedAt": "2025-08-10T13:50:54.461Z",
        "ad": "ABAD BULUT",
        "email": null,
        "bakiye": 0,
        "adresler": [],
        "enYakinVade": null
      },
      {
        "id": 3162,
        "cariAdi": "ABDLADHEEM MOHAMED",
        "musteriKodu": "MS003162",
        "telefon": null,
        "irtibatAdi": null,
        "subeAdi": "SALON",
        "cariGrubu": null,
        "fiyatGrubu": null,
        "aktif": true,
        "createdAt": "2025-08-10T13:50:59.651Z",
        "updatedAt": "2025-08-10T13:50:59.651Z",
        "ad": "ABDLADHEEM MOHAMED",
        "email": null,
        "bakiye": 0,
        "adresler": [],
        "enYakinVade": null
      },
      {
        "id": 2146,
        "cariAdi": "ABDOUL",
        "musteriKodu": "MS002146",
        "telefon": null,
        "irtibatAdi": null,
        "subeAdi": "SALON",
        "cariGrubu": null,
        "fiyatGrubu": null,
        "aktif": true,
        "createdAt": "2025-08-10T13:50:57.765Z",
        "updatedAt": "2025-08-10T13:50:57.765Z",
        "ad": "ABDOUL",
        "email": null,
        "bakiye": 0,
        "adresler": [],
        "enYakinVade": null
      },
      {
        "id": 4215,
        "cariAdi": "ABDULCABAR ERİKLİ",
        "musteriKodu": "MS004215",
        "telefon": null,
        "irtibatAdi": null,
        "subeAdi": "SALON",
        "cariGrubu": null,
        "fiyatGrubu": null,
        "aktif": true,
        "createdAt": "2025-08-10T13:51:01.672Z",
        "updatedAt": "2025-08-10T13:51:01.672Z",
        "ad": "ABDULCABAR ERİKLİ",
        "email": null,
        "bakiye": 0,
        "adresler": [],
        "enYakinVade": null
      }
    ],
    "cariler": [
      {
        "id": 2968,
        "cariAdi": "7A SINIFI",
        "musteriKodu": "MS002968",
        "telefon": null,
        "irtibatAdi": null,
        "subeAdi": "SALON",
        "cariGrubu": null,
        "fiyatGrubu": null,
        "aktif": true,
        "createdAt": "2025-08-10T13:50:59.307Z",
        "updatedAt": "2025-08-10T13:50:59.307Z",
        "ad": "7A SINIFI",
        "email": null,
        "bakiye": 0,
        "adresler": [],
        "enYakinVade": null
      },
      {
        "id": 472,
        "cariAdi": "ABAD BULUT",
        "musteriKodu": "MS000472",
        "telefon": "5306934318",
        "irtibatAdi": null,
        "subeAdi": "İBRAHİMLİ",
        "cariGrubu": null,
        "fiyatGrubu": null,
        "aktif": true,
        "createdAt": "2025-08-10T13:50:54.461Z",
        "updatedAt": "2025-08-10T13:50:54.461Z",
        "ad": "ABAD BULUT",
        "email": null,
        "bakiye": 0,
        "adresler": [],
        "enYakinVade": null
      },
      {
        "id": 3162,
        "cariAdi": "ABDLADHEEM MOHAMED",
        "musteriKodu": "MS003162",
        "telefon": null,
        "irtibatAdi": null,
        "subeAdi": "SALON",
        "cariGrubu": null,
        "fiyatGrubu": null,
        "aktif": true,
        "createdAt": "2025-08-10T13:50:59.651Z",
        "updatedAt": "2025-08-10T13:50:59.651Z",
        "ad": "ABDLADHEEM MOHAMED",
        "email": null,
        "bakiye": 0,
        "adresler": [],
        "enYakinVade": null
      },
      {
        "id": 2146,
        "cariAdi": "ABDOUL",
        "musteriKodu": "MS002146",
        "telefon": null,
        "irtibatAdi": null,
        "subeAdi": "SALON",
        "cariGrubu": null,
        "fiyatGrubu": null,
        "aktif": true,
        "createdAt": "2025-08-10T13:50:57.765Z",
        "updatedAt": "2025-08-10T13:50:57.765Z",
        "ad": "ABDOUL",
        "email": null,
        "bakiye": 0,
        "adresler": [],
        "enYakinVade": null
      },
      {
        "id": 4215,
        "cariAdi": "ABDULCABAR ERİKLİ",
        "musteriKodu": "MS004215",
        "telefon": null,
        "irtibatAdi": null,
        "subeAdi": "SALON",
        "cariGrubu": null,
        "fiyatGrubu": null,
        "aktif": true,
        "createdAt": "2025-08-10T13:51:01.672Z",
        "updatedAt": "2025-08-10T13:51:01.672Z",
        "ad": "ABDULCABAR ERİKLİ",
        "email": null,
        "bakiye": 0,
        "adresler": [],
        "enYakinVade": null
      }
    ],
    "pagination": {
      "page": 1,
      "limit": 5,
      "total": 4571,
      "pages": 915
    },
    "summary": {
      "total": 4571,
      "totalActive": 4571,
      "totalInactive": 0,
      "overdueCount": 0
    },
    "summaryFinancial": {
      "totalReceivable": 68701.37,
      "totalPayments": 30945.22,
      "totalBalance": 37756.149999999994
    }
  }
}